N=6 g1=36 g2=18 #a=0 #t=46 date=1550662759 time=0 maxband=7 maxsize1=17 maxsize2=13
N=6 g1=38 g2=35 #a=0 #t=109 date=1550662759 time=0 maxband=7 maxsize1=37 maxsize2=26
N=6 g1=41 g2=13 #a=0 #t=48 date=1550662759 time=0 maxband=7 maxsize1=21 maxsize2=30
N=6 g1=44 g2=37 #a=0 #t=10 date=1550662759 time=0 maxband=3 maxsize1=48 maxsize2=112
N=6 g1=46 g2=11 #a=0 #t=48 date=1550662759 time=0 maxband=7 maxsize1=20 maxsize2=23
N=6 g1=47 g2=38 #a=0 #t=168 date=1550662759 time=2 maxband=7 maxsize1=54 maxsize2=37
N=6 g1=50 g2=11 #a=0 #t=46 date=1550662759 time=0 maxband=7 maxsize1=16 maxsize2=23
N=6 g1=50 g2=13 #a=0 #t=92 date=1550662759 time=0 maxband=7 maxsize1=31 maxsize2=25
N=6 g1=72 g2=2 #a=0 #t=30 date=1550662760 time=0 maxband=4 maxsize1=16 maxsize2=92
N=6 g1=86 g2=40 #a=0 #t=54 date=1550662760 time=0 maxband=6 maxsize1=112 maxsize2=53
N=6 g1=92 g2=13 #a=0 #t=68 date=1550662760 time=0 maxband=7 maxsize1=14 maxsize2=24
N=6 g1=93 g2=10 #a=0 #t=12 date=1550662760 time=0 maxband=3 maxsize1=48 maxsize2=104
N=6 g1=93 g2=14 #a=0 #t=8 date=1550662760 time=0 maxband=4 maxsize1=96 maxsize2=82
