N=9 g1=935 g2=626 #a=0 #t=1186 date=1550662547 time=35 maxband=56 maxsize1=218 maxsize2=228
N=9 g1=1047 g2=758 #a=0 #t=3306 date=1550662596 time=67 maxband=40 maxsize1=157 maxsize2=244
N=9 g1=1083 g2=666 #a=0 #t=14904 date=1550662620 time=197 maxband=43 maxsize1=153 maxsize2=178
N=9 g1=1131 g2=663 #a=0 #t=3288 date=1550662663 time=84 maxband=48 maxsize1=223 maxsize2=316
N=9 g1=1131 g2=1030 #a=0 #t=3288 date=1550662680 time=115 maxband=51 maxsize1=510 maxsize2=501
N=9 g1=1251 g2=1174 #a=0 #t=5130 date=1550662753 time=39 maxband=41 maxsize1=54 maxsize2=46
N=9 g1=1276 g2=227 #a=0 #t=1376 date=1550662760 time=65 maxband=47 maxsize1=411 maxsize2=450
N=9 g1=1482 g2=720 #a=0 #t=2484 date=1550662885 time=19 maxband=41 maxsize1=46 maxsize2=51
N=9 g1=2414 g2=950 #a=0 #t=1116 date=1550663178 time=44 maxband=48 maxsize1=182 maxsize2=180
N=9 g1=2453 g2=1479 #a=0 #t=1816 date=1550663210 time=34 maxband=40 maxsize1=185 maxsize2=274
N=9 g1=2465 g2=1581 #a=0 #t=1202 date=1550663220 time=31 maxband=42 maxsize1=124 maxsize2=111
N=9 g1=2473 g2=1479 #a=0 #t=2428 date=1550663225 time=60 maxband=45 maxsize1=199 maxsize2=294
N=9 g1=2543 g2=1605 #a=0 #t=1590 date=1550663251 time=47 maxband=54 maxsize1=95 maxsize2=93
N=9 g1=2648 g2=710 #a=0 #t=2040 date=1550663323 time=54 maxband=40 maxsize1=124 maxsize2=152
N=9 g1=2735 g2=1034 #a=0 #t=8776 date=1550663371 time=199 maxband=46 maxsize1=762 maxsize2=231
N=9 g1=2747 g2=1525 #a=0 #t=4764 date=1550663400 time=117 maxband=40 maxsize1=377 maxsize2=356
N=9 g1=2748 g2=1613 #a=0 #t=2292 date=1550663367 time=53 maxband=47 maxsize1=183 maxsize2=230
N=9 g1=2751 g2=1079 #a=0 #t=2488 date=1550663389 time=330 maxband=53 maxsize1=1125 maxsize2=509
N=9 g1=2752 g2=690 #a=0 #t=1506 date=1550663375 time=54 maxband=44 maxsize1=545 maxsize2=231
N=9 g1=2818 g2=2416 #a=0 #t=4904 date=1550663457 time=95 maxband=44 maxsize1=717 maxsize2=205
N=9 g1=2827 g2=1066 #a=0 #t=12472 date=1550663522 time=310 maxband=46 maxsize1=1574 maxsize2=561
N=9 g1=2833 g2=1072 #a=0 #t=19944 date=1550663529 time=243 maxband=43 maxsize1=226 maxsize2=165
N=9 g1=2844 g2=1031 #a=0 #t=15000 date=1550663560 time=431 maxband=46 maxsize1=1157 maxsize2=365
N=9 g1=2870 g2=2359 #a=0 #t=3270 date=1550663590 time=38 maxband=40 maxsize1=107 maxsize2=215
N=9 g1=2882 g2=2749 #a=0 #t=7072 date=1550663613 time=62 maxband=40 maxsize1=170 maxsize2=200
N=9 g1=2931 g2=919 #a=0 #t=3102 date=1550663684 time=134 maxband=45 maxsize1=384 maxsize2=351
N=9 g1=2937 g2=1489 #a=0 #t=5424 date=1550663724 time=284 maxband=40 maxsize1=460 maxsize2=541
N=9 g1=2951 g2=870 #a=0 #t=1914 date=1550663713 time=67 maxband=42 maxsize1=152 maxsize2=360
N=9 g1=2954 g2=1033 #a=0 #t=2346 date=1550663731 time=193 maxband=45 maxsize1=711 maxsize2=305
N=9 g1=2955 g2=2936 #a=0 #t=6060 date=1550663732 time=1107 maxband=72 maxsize1=3579 maxsize2=1078
N=9 g1=2958 g2=701 #a=0 #t=3548 date=1550663730 time=88 maxband=46 maxsize1=428 maxsize2=184
N=9 g1=2964 g2=2961 #a=0 #t=5736 date=1550663761 time=175 maxband=42 maxsize1=578 maxsize2=496
N=9 g1=2966 g2=932 #a=0 #t=7818 date=1550663747 time=212 maxband=40 maxsize1=233 maxsize2=112
N=9 g1=2967 g2=932 #a=0 #t=17112 date=1550663756 time=355 maxband=40 maxsize1=177 maxsize2=123
N=9 g1=2978 g2=995 #a=0 #t=29808 date=1550663774 time=434 maxband=43 maxsize1=262 maxsize2=384
N=9 g1=2985 g2=2756 #a=0 #t=3882 date=1550663790 time=75 maxband=41 maxsize1=112 maxsize2=237
N=9 g1=2991 g2=2465 #a=0 #t=6480 date=1550663795 time=52 maxband=44 maxsize1=118 maxsize2=140
N=9 g1=2996 g2=2840 #a=0 #t=18248 date=1550663808 time=512 maxband=40 maxsize1=692 maxsize2=510
N=9 g1=2998 g2=1243 #a=0 #t=5580 date=1550663802 time=67 maxband=43 maxsize1=97 maxsize2=226
N=9 g1=3012 g2=2954 #a=0 #t=10500 date=1550663905 time=897 maxband=45 maxsize1=1143 maxsize2=2958
N=9 g1=3014 g2=1171 #a=0 #t=20268 date=1550663945 time=360 maxband=43 maxsize1=155 maxsize2=133
N=9 g1=3015 g2=787 #a=0 #t=8782 date=1550663871 time=206 maxband=45 maxsize1=457 maxsize2=308
N=9 g1=3017 g2=2947 #a=0 #t=7884 date=1550663872 time=281 maxband=53 maxsize1=496 maxsize2=990
N=9 g1=3017 g2=2952 #a=0 #t=7884 date=1550663873 time=849 maxband=48 maxsize1=1047 maxsize2=3148
N=9 g1=3025 g2=1031 #a=0 #t=18288 date=1550663899 time=617 maxband=40 maxsize1=643 maxsize2=381
N=9 g1=3047 g2=2939 #a=0 #t=11088 date=1550663960 time=325 maxband=42 maxsize1=558 maxsize2=312
N=9 g1=3053 g2=2968 #a=0 #t=26328 date=1550663994 time=876 maxband=59 maxsize1=1809 maxsize2=1937
N=9 g1=3073 g2=2966 #a=0 #t=11508 date=1550664030 time=308 maxband=40 maxsize1=620 maxsize2=492
N=9 g1=3074 g2=787 #a=0 #t=10032 date=1550664044 time=316 maxband=42 maxsize1=677 maxsize2=443
N=9 g1=3092 g2=876 #a=0 #t=1440 date=1550664052 time=70 maxband=40 maxsize1=261 maxsize2=277
N=9 g1=3092 g2=2967 #a=0 #t=30792 date=1550664092 time=1365 maxband=41 maxsize1=673 maxsize2=960
N=9 g1=3092 g2=2996 #a=0 #t=20796 date=1550664105 time=733 maxband=40 maxsize1=361 maxsize2=330
N=9 g1=3225 g2=1240 #a=0 #t=2760 date=1550664252 time=805 maxband=40 maxsize1=968 maxsize2=3481
N=9 g1=3225 g2=3163 #a=0 #t=5040 date=1550664299 time=126 maxband=45 maxsize1=171 maxsize2=181
N=9 g1=3226 g2=1592 #a=0 #t=4728 date=1550664289 time=82 maxband=43 maxsize1=88 maxsize2=94
N=9 g1=3236 g2=1033 #a=0 #t=11280 date=1550664296 time=435 maxband=40 maxsize1=452 maxsize2=425
N=9 g1=3241 g2=780 #a=0 #t=3882 date=1550664284 time=65 maxband=41 maxsize1=87 maxsize2=115
N=9 g1=3249 g2=330 #a=0 #t=2166 date=1550664292 time=55 maxband=40 maxsize1=114 maxsize2=91
N=9 g1=3258 g2=2750 #a=0 #t=3954 date=1550664321 time=134 maxband=41 maxsize1=343 maxsize2=189
N=9 g1=3271 g2=2753 #a=0 #t=17688 date=1550664340 time=266 maxband=40 maxsize1=101 maxsize2=118
N=9 g1=3271 g2=2966 #a=0 #t=17688 date=1550664348 time=497 maxband=40 maxsize1=289 maxsize2=217
N=9 g1=3272 g2=2967 #a=0 #t=16992 date=1550664349 time=630 maxband=42 maxsize1=613 maxsize2=309
N=9 g1=3281 g2=1486 #a=0 #t=1174 date=1550664354 time=25 maxband=42 maxsize1=101 maxsize2=116
N=9 g1=3288 g2=3229 #a=0 #t=12570 date=1550664349 time=464 maxband=42 maxsize1=644 maxsize2=613
N=9 g1=3290 g2=1507 #a=0 #t=5160 date=1550664372 time=147 maxband=46 maxsize1=320 maxsize2=334
N=9 g1=3313 g2=647 #a=0 #t=15200 date=1550664397 time=673 maxband=46 maxsize1=1090 maxsize2=1475
N=9 g1=3313 g2=2533 #a=0 #t=2618 date=1550664395 time=121 maxband=40 maxsize1=1767 maxsize2=678
N=9 g1=3315 g2=3225 #a=0 #t=14922 date=1550664396 time=460 maxband=40 maxsize1=290 maxsize2=132
N=9 g1=3339 g2=636 #a=0 #t=13368 date=1550664464 time=182 maxband=40 maxsize1=131 maxsize2=126
N=9 g1=3355 g2=766 #a=0 #t=8412 date=1550664533 time=186 maxband=40 maxsize1=290 maxsize2=539
N=9 g1=3355 g2=2929 #a=0 #t=23352 date=1550664520 time=602 maxband=40 maxsize1=532 maxsize2=455
N=9 g1=3360 g2=2414 #a=0 #t=9840 date=1550664505 time=224 maxband=40 maxsize1=236 maxsize2=177
N=9 g1=3366 g2=2929 #a=0 #t=23352 date=1550664551 time=632 maxband=40 maxsize1=284 maxsize2=417
N=9 g1=3369 g2=2753 #a=0 #t=25008 date=1550664543 time=301 maxband=40 maxsize1=148 maxsize2=127
N=9 g1=3390 g2=2392 #a=0 #t=1464 date=1550664574 time=284 maxband=43 maxsize1=1380 maxsize2=870
N=9 g1=3437 g2=2553 #a=0 #t=3972 date=1550664636 time=83 maxband=41 maxsize1=108 maxsize2=128
N=9 g1=3449 g2=1482 #a=0 #t=11196 date=1550664662 time=53 maxband=45 maxsize1=50 maxsize2=50
N=9 g1=3450 g2=635 #a=0 #t=6570 date=1550664651 time=931 maxband=58 maxsize1=4334 maxsize2=2626
N=9 g1=3518 g2=712 #a=0 #t=12552 date=1550664786 time=213 maxband=51 maxsize1=436 maxsize2=282
N=9 g1=3534 g2=2929 #a=0 #t=10980 date=1550664813 time=247 maxband=44 maxsize1=552 maxsize2=400
N=9 g1=3587 g2=2753 #a=0 #t=28884 date=1550664892 time=335 maxband=40 maxsize1=134 maxsize2=92
N=9 g1=3641 g2=778 #a=0 #t=8298 date=1550664963 time=213 maxband=43 maxsize1=447 maxsize2=429
N=9 g1=3643 g2=1033 #a=0 #t=6570 date=1550664968 time=316 maxband=42 maxsize1=689 maxsize2=698
N=9 g1=3648 g2=1030 #a=0 #t=11280 date=1550664976 time=228 maxband=51 maxsize1=382 maxsize2=221
N=9 g1=3774 g2=2954 #a=0 #t=4800 date=1550665155 time=954 maxband=43 maxsize1=1273 maxsize2=1601
N=9 g1=3794 g2=2973 #a=0 #t=43608 date=1550665231 time=947 maxband=42 maxsize1=432 maxsize2=1373
N=9 g1=3795 g2=989 #a=0 #t=28288 date=1550665189 time=531 maxband=43 maxsize1=185 maxsize2=201
N=9 g1=3795 g2=2750 #a=0 #t=8738 date=1550665192 time=203 maxband=41 maxsize1=346 maxsize2=509
N=9 g1=3796 g2=2964 #a=0 #t=23076 date=1550665218 time=610 maxband=43 maxsize1=780 maxsize2=675
N=9 g1=3800 g2=1030 #a=0 #t=18540 date=1550665225 time=353 maxband=40 maxsize1=403 maxsize2=234
N=9 g1=3805 g2=3289 #a=0 #t=8094 date=1550665215 time=337 maxband=61 maxsize1=867 maxsize2=1343
N=9 g1=3815 g2=2964 #a=0 #t=20664 date=1550665272 time=283 maxband=40 maxsize1=213 maxsize2=217
N=9 g1=3829 g2=1031 #a=0 #t=25824 date=1550665316 time=624 maxband=58 maxsize1=411 maxsize2=359
N=9 g1=3831 g2=590 #a=0 #t=930 date=1550665293 time=29 maxband=40 maxsize1=198 maxsize2=232
N=9 g1=3831 g2=777 #a=0 #t=8724 date=1550665320 time=447 maxband=40 maxsize1=975 maxsize2=2802
N=9 g1=3840 g2=2967 #a=0 #t=43608 date=1550665354 time=857 maxband=40 maxsize1=277 maxsize2=448
N=9 g1=3876 g2=2412 #a=0 #t=3594 date=1550665409 time=164 maxband=42 maxsize1=524 maxsize2=543
N=9 g1=3968 g2=578 #a=0 #t=1320 date=1550665532 time=58 maxband=42 maxsize1=153 maxsize2=258
N=9 g1=4028 g2=775 #a=0 #t=3438 date=1550665624 time=568 maxband=48 maxsize1=2650 maxsize2=1224
N=9 g1=4077 g2=1174 #a=0 #t=11250 date=1550665714 time=60 maxband=45 maxsize1=50 maxsize2=50
N=9 g1=4078 g2=794 #a=0 #t=13830 date=1550665719 time=219 maxband=40 maxsize1=85 maxsize2=96
N=9 g1=4101 g2=625 #a=0 #t=1272 date=1550665736 time=537 maxband=45 maxsize1=2357 maxsize2=1047
N=9 g1=4101 g2=2391 #a=0 #t=350 date=1550665737 time=556 maxband=45 maxsize1=2393 maxsize2=1047
N=9 g1=4138 g2=2966 #a=0 #t=13704 date=1550665788 time=266 maxband=40 maxsize1=172 maxsize2=142
N=9 g1=4170 g2=647 #a=0 #t=6730 date=1550665871 time=194 maxband=43 maxsize1=375 maxsize2=330
N=9 g1=4182 g2=2403 #a=0 #t=16176 date=1550665903 time=498 maxband=40 maxsize1=143 maxsize2=201
N=9 g1=4200 g2=777 #a=0 #t=28440 date=1550665968 time=257 maxband=43 maxsize1=64 maxsize2=151
N=9 g1=4287 g2=604 #a=0 #t=4020 date=1550666083 time=106 maxband=40 maxsize1=269 maxsize2=535
N=9 g1=4341 g2=2753 #a=0 #t=28884 date=1550666181 time=241 maxband=40 maxsize1=100 maxsize2=73
N=9 g1=4341 g2=2964 #a=0 #t=29784 date=1550666187 time=286 maxband=40 maxsize1=147 maxsize2=101
N=9 g1=4341 g2=2968 #a=0 #t=48576 date=1550666189 time=553 maxband=40 maxsize1=125 maxsize2=79
N=9 g1=4350 g2=777 #a=0 #t=10976 date=1550666194 time=139 maxband=40 maxsize1=151 maxsize2=111
N=9 g1=4352 g2=2403 #a=0 #t=7224 date=1550666188 time=80 maxband=40 maxsize1=113 maxsize2=87
N=9 g1=4352 g2=2753 #a=0 #t=11508 date=1550666193 time=92 maxband=40 maxsize1=103 maxsize2=73
N=9 g1=4646 g2=2747 #a=0 #t=19896 date=1550666656 time=542 maxband=45 maxsize1=657 maxsize2=537
N=9 g1=4646 g2=2996 #a=0 #t=44664 date=1550666692 time=1088 maxband=40 maxsize1=587 maxsize2=504
N=9 g1=4656 g2=638 #a=0 #t=19296 date=1550666700 time=352 maxband=41 maxsize1=149 maxsize2=238
N=9 g1=4675 g2=2742 #a=0 #t=19212 date=1550666826 time=381 maxband=40 maxsize1=381 maxsize2=359
N=9 g1=4675 g2=2929 #a=0 #t=41712 date=1550666843 time=1084 maxband=40 maxsize1=622 maxsize2=456
N=9 g1=4675 g2=3726 #a=0 #t=9888 date=1550666802 time=161 maxband=48 maxsize1=178 maxsize2=127
N=9 g1=4680 g2=1033 #a=0 #t=33552 date=1550666918 time=1037 maxband=46 maxsize1=663 maxsize2=422
N=9 g1=4681 g2=2753 #a=0 #t=45720 date=1550666887 time=1110 maxband=46 maxsize1=687 maxsize2=712
N=9 g1=4695 g2=2535 #a=0 #t=6480 date=1550666993 time=224 maxband=44 maxsize1=605 maxsize2=555
N=9 g1=4696 g2=2936 #a=0 #t=40128 date=1550667023 time=1176 maxband=44 maxsize1=378 maxsize2=623
N=9 g1=4703 g2=629 #a=0 #t=13092 date=1550667050 time=230 maxband=40 maxsize1=190 maxsize2=436
N=9 g1=4704 g2=629 #a=0 #t=7782 date=1550667055 time=225 maxband=40 maxsize1=488 maxsize2=661
N=9 g1=4758 g2=712 #a=0 #t=21744 date=1550667424 time=482 maxband=51 maxsize1=394 maxsize2=230
N=9 g1=4758 g2=777 #a=0 #t=19296 date=1550667438 time=716 maxband=51 maxsize1=1055 maxsize2=556
N=9 g1=4758 g2=1030 #a=0 #t=19296 date=1550667430 time=428 maxband=51 maxsize1=408 maxsize2=216
N=9 g1=4758 g2=1033 #a=0 #t=19296 date=1550667432 time=617 maxband=51 maxsize1=535 maxsize2=331
N=9 g1=4865 g2=217 #a=0 #t=9280 date=1550667816 time=234 maxband=51 maxsize1=432 maxsize2=186
N=9 g1=4947 g2=1033 #a=0 #t=15264 date=1550668151 time=360 maxband=58 maxsize1=302 maxsize2=193
N=9 g1=4952 g2=2535 #a=0 #t=3984 date=1550668172 time=657 maxband=40 maxsize1=813 maxsize2=1095
N=9 g1=4953 g2=1030 #a=0 #t=7416 date=1550668195 time=204 maxband=51 maxsize1=397 maxsize2=329
N=9 g1=5010 g2=2392 #a=0 #t=4924 date=1550668399 time=89 maxband=40 maxsize1=231 maxsize2=330
N=9 g1=5033 g2=2929 #a=0 #t=23352 date=1550668518 time=676 maxband=40 maxsize1=361 maxsize2=393
N=9 g1=5033 g2=2930 #a=0 #t=17472 date=1550668518 time=506 maxband=40 maxsize1=271 maxsize2=287
N=9 g1=5033 g2=2936 #a=0 #t=26624 date=1550668521 time=967 maxband=54 maxsize1=461 maxsize2=366
N=9 g1=5038 g2=1080 #a=0 #t=11520 date=1550668639 time=353 maxband=60 maxsize1=285 maxsize2=177
N=9 g1=5039 g2=2743 #a=0 #t=22500 date=1550668582 time=1758 maxband=40 maxsize1=2952 maxsize2=3371
N=9 g1=5040 g2=2549 #a=0 #t=10200 date=1550668536 time=217 maxband=40 maxsize1=308 maxsize2=227
N=9 g1=5042 g2=839 #a=0 #t=3906 date=1550668525 time=115 maxband=44 maxsize1=153 maxsize2=321
N=9 g1=5047 g2=2945 #a=0 #t=24336 date=1550668627 time=732 maxband=42 maxsize1=312 maxsize2=394
N=9 g1=5050 g2=2929 #a=0 #t=28560 date=1550668646 time=1524 maxband=40 maxsize1=1332 maxsize2=2839
N=9 g1=5051 g2=635 #a=0 #t=15264 date=1550668614 time=420 maxband=45 maxsize1=400 maxsize2=690
N=9 g1=5052 g2=2929 #a=0 #t=49584 date=1550668684 time=1863 maxband=40 maxsize1=841 maxsize2=1289
N=9 g1=5052 g2=2930 #a=0 #t=36576 date=1550668685 time=1143 maxband=40 maxsize1=420 maxsize2=269
N=9 g1=5055 g2=766 #a=0 #t=14472 date=1550668718 time=378 maxband=40 maxsize1=546 maxsize2=361
N=9 g1=5055 g2=2929 #a=0 #t=41712 date=1550668705 time=1191 maxband=40 maxsize1=582 maxsize2=759
N=9 g1=5056 g2=75 #a=0 #t=2244 date=1550668663 time=57 maxband=40 maxsize1=233 maxsize2=204
N=9 g1=5057 g2=2742 #a=0 #t=12996 date=1550668715 time=491 maxband=40 maxsize1=538 maxsize2=749
N=9 g1=5066 g2=3745 #a=0 #t=86400 date=1550668778 time=626 maxband=41 maxsize1=75 maxsize2=112
N=9 g1=5069 g2=633 #a=0 #t=5752 date=1550668791 time=143 maxband=45 maxsize1=244 maxsize2=241
N=9 g1=5094 g2=604 #a=0 #t=4854 date=1550668935 time=176 maxband=41 maxsize1=536 maxsize2=1484
N=9 g1=5096 g2=1024 #a=0 #t=8832 date=1550669010 time=543 maxband=51 maxsize1=1061 maxsize2=848
N=9 g1=5104 g2=788 #a=0 #t=10692 date=1550669060 time=336 maxband=43 maxsize1=124 maxsize2=220
N=9 g1=5113 g2=2400 #a=0 #t=3984 date=1550669079 time=108 maxband=41 maxsize1=169 maxsize2=260
N=9 g1=5114 g2=2742 #a=0 #t=7266 date=1550669097 time=197 maxband=50 maxsize1=198 maxsize2=220
N=9 g1=5123 g2=2748 #a=0 #t=8442 date=1550669146 time=212 maxband=47 maxsize1=174 maxsize2=165
N=9 g1=5182 g2=3234 #a=0 #t=24456 date=1550669356 time=467 maxband=42 maxsize1=324 maxsize2=113
N=9 g1=5186 g2=2558 #a=0 #t=7176 date=1550669379 time=122 maxband=42 maxsize1=99 maxsize2=77
N=9 g1=5260 g2=1031 #a=0 #t=48960 date=1550669780 time=1861 maxband=51 maxsize1=461 maxsize2=368
N=9 g1=5275 g2=2394 #a=0 #t=17568 date=1550669844 time=557 maxband=40 maxsize1=254 maxsize2=358
N=9 g1=5275 g2=2395 #a=0 #t=17568 date=1550669844 time=397 maxband=46 maxsize1=252 maxsize2=280
N=9 g1=5328 g2=1033 #a=0 #t=7416 date=1550670138 time=243 maxband=51 maxsize1=421 maxsize2=294
N=9 g1=5328 g2=2951 #a=0 #t=8568 date=1550670142 time=182 maxband=45 maxsize1=277 maxsize2=140
N=9 g1=5490 g2=531 #a=0 #t=4296 date=1550670705 time=98 maxband=49 maxsize1=281 maxsize2=313
N=9 g1=5764 g2=1033 #a=0 #t=24240 date=1550671550 time=738 maxband=53 maxsize1=144 maxsize2=166
N=9 g1=5903 g2=648 #a=0 #t=15168 date=1550671936 time=625 maxband=46 maxsize1=260 maxsize2=457
N=9 g1=5907 g2=777 #a=0 #t=18540 date=1550671970 time=690 maxband=40 maxsize1=419 maxsize2=1276
N=9 g1=5950 g2=627 #a=0 #t=13476 date=1550672153 time=476 maxband=40 maxsize1=386 maxsize2=510
N=9 g1=5961 g2=2397 #a=0 #t=17568 date=1550672214 time=332 maxband=47 maxsize1=167 maxsize2=206
N=9 g1=6048 g2=1482 #a=0 #t=11196 date=1550672562 time=54 maxband=45 maxsize1=50 maxsize2=50
N=9 g1=6049 g2=3986 #a=0 #t=31320 date=1550672594 time=101 maxband=41 maxsize1=46 maxsize2=46
N=9 g1=6050 g2=2967 #a=0 #t=16680 date=1550672575 time=931 maxband=60 maxsize1=572 maxsize2=1578
N=9 g1=6067 g2=777 #a=0 #t=49680 date=1550672670 time=868 maxband=51 maxsize1=429 maxsize2=169
N=9 g1=6207 g2=2535 #a=0 #t=5444 date=1550673075 time=308 maxband=68 maxsize1=433 maxsize2=487
N=9 g1=6391 g2=553 #a=0 #t=2760 date=1550673778 time=225 maxband=46 maxsize1=622 maxsize2=620
N=9 g1=6558 g2=2416 #a=0 #t=3144 date=1550674287 time=40 maxband=43 maxsize1=111 maxsize2=156
N=9 g1=6558 g2=2569 #a=0 #t=1186 date=1550674291 time=22 maxband=43 maxsize1=120 maxsize2=124
N=9 g1=6690 g2=693 #a=0 #t=2220 date=1550674809 time=48 maxband=41 maxsize1=62 maxsize2=93
N=9 g1=6949 g2=664 #a=0 #t=1148 date=1550675345 time=37 maxband=40 maxsize1=196 maxsize2=261
N=9 g1=6951 g2=555 #a=0 #t=1257 date=1550675338 time=26 maxband=40 maxsize1=121 maxsize2=580
N=9 g1=6951 g2=627 #a=0 #t=4950 date=1550675341 time=108 maxband=40 maxsize1=168 maxsize2=344
N=9 g1=6975 g2=2937 #a=0 #t=7092 date=1550675419 time=535 maxband=43 maxsize1=763 maxsize2=1074
N=9 g1=6976 g2=555 #a=0 #t=2322 date=1550675399 time=53 maxband=40 maxsize1=239 maxsize2=467
N=9 g1=6976 g2=580 #a=0 #t=2976 date=1550675402 time=92 maxband=42 maxsize1=179 maxsize2=178
N=9 g1=6976 g2=627 #a=0 #t=9156 date=1550675408 time=309 maxband=40 maxsize1=521 maxsize2=896
N=9 g1=6976 g2=647 #a=0 #t=20784 date=1550675414 time=576 maxband=44 maxsize1=238 maxsize2=324
N=9 g1=6976 g2=710 #a=0 #t=8007 date=1550675428 time=591 maxband=46 maxsize1=1142 maxsize2=1874
N=9 g1=6976 g2=2397 #a=0 #t=6178 date=1550675409 time=175 maxband=40 maxsize1=249 maxsize2=322
N=9 g1=6982 g2=555 #a=0 #t=1714 date=1550675431 time=26 maxband=40 maxsize1=104 maxsize2=240
N=9 g1=6982 g2=627 #a=0 #t=6164 date=1550675434 time=113 maxband=40 maxsize1=100 maxsize2=197
N=9 g1=6982 g2=766 #a=0 #t=4928 date=1550675443 time=85 maxband=40 maxsize1=99 maxsize2=609
N=9 g1=6982 g2=768 #a=0 #t=2849 date=1550675443 time=47 maxband=40 maxsize1=103 maxsize2=158
N=9 g1=6984 g2=627 #a=0 #t=4950 date=1550675447 time=143 maxband=40 maxsize1=248 maxsize2=660
N=9 g1=6984 g2=768 #a=0 #t=2160 date=1550675463 time=52 maxband=40 maxsize1=160 maxsize2=242
N=9 g1=6985 g2=627 #a=0 #t=11310 date=1550675456 time=337 maxband=40 maxsize1=187 maxsize2=354
N=9 g1=7106 g2=2366 #a=0 #t=3168 date=1550675772 time=54 maxband=47 maxsize1=200 maxsize2=550
N=9 g1=7106 g2=4977 #a=0 #t=30240 date=1550675784 time=102 maxband=41 maxsize1=46 maxsize2=46
N=9 g1=7111 g2=1059 #a=0 #t=11250 date=1550675793 time=86 maxband=45 maxsize1=58 maxsize2=54
N=9 g1=8074 g2=2560 #a=0 #t=712 date=1550678711 time=9 maxband=43 maxsize1=78 maxsize2=104
N=9 g1=8074 g2=2571 #a=0 #t=712 date=1550678711 time=7 maxband=43 maxsize1=81 maxsize2=105
N=9 g1=8074 g2=2574 #a=0 #t=712 date=1550678711 time=7 maxband=43 maxsize1=56 maxsize2=65
N=9 g1=8137 g2=1613 #a=0 #t=203 date=1550678729 time=11 maxband=42 maxsize1=108 maxsize2=74
N=9 g1=8212 g2=3432 #a=0 #t=400 date=1550678768 time=36 maxband=45 maxsize1=241 maxsize2=307
N=9 g1=8227 g2=2569 #a=0 #t=513 date=1550678776 time=10 maxband=43 maxsize1=113 maxsize2=106
N=9 g1=8396 g2=3076 #a=0 #t=2870 date=1550678952 time=167 maxband=40 maxsize1=801 maxsize2=567
N=9 g1=8398 g2=2422 #a=0 #t=2040 date=1550678945 time=34 maxband=42 maxsize1=86 maxsize2=91
N=9 g1=8400 g2=809 #a=0 #t=2064 date=1550678949 time=34 maxband=43 maxsize1=111 maxsize2=130
N=9 g1=8400 g2=813 #a=0 #t=1694 date=1550678949 time=31 maxband=43 maxsize1=92 maxsize2=87
N=9 g1=8403 g2=2458 #a=0 #t=2120 date=1550678959 time=99 maxband=42 maxsize1=257 maxsize2=264
N=9 g1=8453 g2=2406 #a=0 #t=2848 date=1550679069 time=114 maxband=43 maxsize1=565 maxsize2=1002
N=9 g1=8453 g2=2569 #a=0 #t=1438 date=1550679073 time=23 maxband=43 maxsize1=218 maxsize2=163
N=9 g1=8457 g2=566 #a=0 #t=1196 date=1550679079 time=18 maxband=43 maxsize1=169 maxsize2=142
N=9 g1=8457 g2=2416 #a=0 #t=3904 date=1550679079 time=32 maxband=43 maxsize1=111 maxsize2=96
N=9 g1=8558 g2=638 #a=0 #t=10500 date=1550679209 time=129 maxband=40 maxsize1=145 maxsize2=134
N=9 g1=9354 g2=683 #a=0 #t=7368 date=1550680574 time=105 maxband=43 maxsize1=227 maxsize2=185
N=9 g1=9354 g2=1469 #a=0 #t=1632 date=1550680595 time=123 maxband=70 maxsize1=714 maxsize2=843
N=9 g1=9355 g2=710 #a=0 #t=3942 date=1550680584 time=330 maxband=82 maxsize1=1101 maxsize2=955
N=9 g1=9355 g2=1079 #a=0 #t=7158 date=1550680614 time=244 maxband=42 maxsize1=521 maxsize2=473
N=9 g1=9356 g2=1079 #a=0 #t=7158 date=1550680610 time=270 maxband=42 maxsize1=915 maxsize2=701
N=9 g1=9358 g2=2937 #a=0 #t=7428 date=1550680609 time=148 maxband=46 maxsize1=357 maxsize2=308
N=9 g1=9397 g2=1360 #a=0 #t=6048 date=1550680878 time=92 maxband=41 maxsize1=209 maxsize2=162
N=9 g1=9398 g2=2543 #a=0 #t=12696 date=1550680837 time=367 maxband=40 maxsize1=432 maxsize2=1129
N=9 g1=9401 g2=635 #a=0 #t=24060 date=1550680888 time=751 maxband=46 maxsize1=684 maxsize2=1625
N=9 g1=9622 g2=916 #a=0 #t=9936 date=1550681905 time=144 maxband=41 maxsize1=200 maxsize2=87
N=9 g1=9624 g2=2929 #a=0 #t=29496 date=1550681928 time=456 maxband=51 maxsize1=325 maxsize2=296
N=9 g1=9667 g2=780 #a=0 #t=5996 date=1550682200 time=187 maxband=44 maxsize1=622 maxsize2=1258
N=9 g1=10063 g2=709 #a=0 #t=14256 date=1550684298 time=254 maxband=51 maxsize1=237 maxsize2=567
N=9 g1=10139 g2=227 #a=0 #t=5384 date=1550684857 time=139 maxband=56 maxsize1=198 maxsize2=343
N=9 g1=10180 g2=219 #a=0 #t=8640 date=1550685143 time=115 maxband=51 maxsize1=75 maxsize2=96
N=9 g1=10268 g2=240 #a=0 #t=1658 date=1550685754 time=61 maxband=41 maxsize1=628 maxsize2=266
N=9 g1=10526 g2=196 #a=0 #t=3632 date=1550686864 time=51 maxband=56 maxsize1=250 maxsize2=119
N=9 g1=10769 g2=710 #a=0 #t=6924 date=1550688347 time=246 maxband=42 maxsize1=468 maxsize2=708
N=9 g1=12090 g2=2966 #a=0 #t=50688 date=1550695292 time=1451 maxband=46 maxsize1=644 maxsize2=689
