0001 3020 0122 1132 3124 2203 2212 0300 1300 1322 3340 
0001 3020 0122 1112 3123 2201 2212 0300 1300 1322 3330 
0001 0023 1102 2100 3133 1230 2240 2213 3234 2300 2333 
0001 1000 4020 0123 2230 3200 3213 2302 2310 3330 0403 
0001 0023 1102 1134 2130 2114 1240 1233 2202 2213 2234 
0001 0020 1003 1021 0100 0113 1101 2230 3202 2312 3330 
0001 0020 1000 1032 0130 0121 1101 1120 2203 3210 2312 
0100 1020 0030 1130 0001 1101 1031 2212 0042 0123 2204 
0001 0023 1102 1113 2130 2114 1240 1233 2202 2213 2234 
0001 1000 4023 0123 2230 3200 3213 2302 2310 3330 0400 
0001 1002 4030 0130 2220 3200 3212 2303 2310 3320 0402 
0001 0020 1000 1032 0130 0121 1101 2203 3210 2312 3303 
0001 1000 1012 0102 0130 1101 2220 3230 3213 2300 3320 
0001 1000 1012 0102 0130 1101 2230 2223 3203 2312 3323 
0001 1011 2020 0120 0113 1101 2121 1210 1222 3312 3331 
0010 0021 2100 3101 3112 1201 3212 2311 4301 1411 3400 
0010 0021 2101 3111 3122 1211 3222 2312 4311 1412 3401 
1000 2011 0102 2102 2110 0210 2202 3301 4300 3421 4401 
1001 1020 2001 0122 1101 2120 0200 3302 4300 3412 4402 
3000 0100 0111 0122 1112 0221 1222 1302 1321 2320 2312 
0001 1032 1043 2010 3023 0100 0111 1101 0233 1224 0310 
0001 0012 1000 0121 1101 3120 1221 3210 1310 2320 3312 
1001 2002 2031 0120 0113 0132 1110 1202 1231 1223 2232 
0001 0012 3002 1112 2110 1222 3220 0311 1320 2321 3301 
0001 2010 3000 0100 0111 3110 1212 1221 4200 2301 0422 
4000 0100 0111 1211 2202 2212 2322 2421 3420 4402 4410 
0001 0020 1000 0121 1120 3112 1212 3211 1310 2302 3301 
0001 1022 2000 3012 0110 1120 0221 2201 2220 0302 1312 
0001 0012 1002 0111 1101 3120 1221 3210 1310 2320 3312 
1000 1011 2001 0121 0123 1110 2100 2133 0232 1213 1221 
0001 3000 3011 3022 0110 0121 2112 0200 0211 3210 1322 
0001 0012 1003 2010 2021 0111 0133 1200 1233 2202 2230 
0001 3000 3011 3022 0110 0112 2121 0200 0211 3210 1322 
